org.fdroid.basic.debug_8514535.apk org.fdroid.basic.debug 2022-08-25
org.fdroid.basic.debug_8515873.apk org.fdroid.basic.debug 2022-05-25
org.fdroid.basic.debug_8521833.apk org.fdroid.basic.debug 2022-05-25
org.fdroid.basic.debug_8524478.apk org.fdroid.basic.debug 2022-05-25
org.fdroid.basic.debug_8528711.apk org.fdroid.basic.debug 2022-05-25
org.fdroid.basic.debug_8535121.apk org.fdroid.basic.debug 2022-05-25
org.fdroid.basic.debug_8583427.apk org.fdroid.basic.debug 2022-07-20
org.fdroid.basic.debug_116629835.apk org.fdroid.basic.debug 2022-09-12
org.fdroid.basic.debug_116666310.apk org.fdroid.basic.debug 2022-10-24
org.fdroid.basic.debug_116681561.apk org.fdroid.basic.debug 2022-11-11
org.fdroid.basic.debug_116691509.apk org.fdroid.basic.debug 2022-11-22
org.fdroid.basic.debug_116693717.apk org.fdroid.basic.debug 2022-11-25
org.fdroid.basic.debug_116693788.apk org.fdroid.basic.debug 2022-11-25
org.fdroid.basic.debug_116693836.apk org.fdroid.basic.debug 2022-11-25
org.fdroid.basic.debug_116696398.apk org.fdroid.basic.debug 2022-11-28
org.fdroid.basic.debug_116698296.apk org.fdroid.basic.debug 2022-11-30
org.fdroid.basic.debug_116698846.apk org.fdroid.basic.debug 2022-12-01
org.fdroid.basic.debug_116699715.apk org.fdroid.basic.debug 2022-12-02
org.fdroid.basic.debug_116699739.apk org.fdroid.basic.debug 2022-12-02
org.fdroid.basic.debug_116699847.apk org.fdroid.basic.debug 2022-12-02
org.fdroid.basic.debug_116699943.apk org.fdroid.basic.debug 2022-12-02
org.fdroid.fdroid.debug_8514535.apk org.fdroid.fdroid.debug 2022-08-25
org.fdroid.fdroid.debug_8515873.apk org.fdroid.fdroid.debug 2022-05-25
org.fdroid.fdroid.debug_8521833.apk org.fdroid.fdroid.debug 2022-05-25
org.fdroid.fdroid.debug_8524478.apk org.fdroid.fdroid.debug 2022-05-25
org.fdroid.fdroid.debug_8528711.apk org.fdroid.fdroid.debug 2022-05-25
org.fdroid.fdroid.debug_8535121.apk org.fdroid.fdroid.debug 2022-05-25
org.fdroid.fdroid.debug_8583427.apk org.fdroid.fdroid.debug 2022-07-20
org.fdroid.fdroid.debug_116629835.apk org.fdroid.fdroid.debug 2022-09-12
org.fdroid.fdroid.debug_116666310.apk org.fdroid.fdroid.debug 2022-10-24
org.fdroid.fdroid.debug_116681561.apk org.fdroid.fdroid.debug 2022-11-11
org.fdroid.fdroid.debug_116691509.apk org.fdroid.fdroid.debug 2022-11-22
org.fdroid.fdroid.debug_116693717.apk org.fdroid.fdroid.debug 2022-11-25
org.fdroid.fdroid.debug_116693788.apk org.fdroid.fdroid.debug 2022-11-25
org.fdroid.fdroid.debug_116693836.apk org.fdroid.fdroid.debug 2022-11-25
org.fdroid.fdroid.debug_116696398.apk org.fdroid.fdroid.debug 2022-11-28
org.fdroid.fdroid.debug_116698296.apk org.fdroid.fdroid.debug 2022-11-30
org.fdroid.fdroid.debug_116698846.apk org.fdroid.fdroid.debug 2022-12-01
org.fdroid.fdroid.debug_116699715.apk org.fdroid.fdroid.debug 2022-12-02
org.fdroid.fdroid.debug_116699739.apk org.fdroid.fdroid.debug 2022-12-02
org.fdroid.fdroid.debug_116699847.apk org.fdroid.fdroid.debug 2022-12-02
org.fdroid.fdroid.debug_116699943.apk org.fdroid.fdroid.debug 2022-12-02
